JedR Academy - JedR: Categorization
…
Goals of this training session

To apply case_match() within a mutate() to create data categories. It’s a one-to-one match, for the most part.

To apply case_when() within a mutate() to create data categories. This allows more complex logic.

Our scenario

Here at the Galactic News Hub, we have a dataset of all the sources we connect with on a regular basis: The starwars data set that comes with the tidyverse library.

library(tidyverse)
starwars

# A tibble: 87 × 14
   name     height  mass hair_color skin_color eye_color birth_year sex   gender
   <chr>     <int> <dbl> <chr>      <chr>      <chr>          <dbl> <chr> <chr> 
 1 Luke Sk…    172    77 blond      fair       blue            19   male  mascu…
 2 C-3PO       167    75 <NA>       gold       yellow         112   none  mascu…
 3 R2-D2        96    32 <NA>       white, bl… red             33   none  mascu…
 4 Darth V…    202   136 none       white      yellow          41.9 male  mascu…
 5 Leia Or…    150    49 brown      light      brown           19   fema… femin…
 6 Owen La…    178   120 brown, gr… light      blue            52   male  mascu…
 7 Beru Wh…    165    75 brown      light      blue            47   fema… femin…
 8 R5-D4        97    32 <NA>       white, red red             NA   none  mascu…
 9 Biggs D…    183    84 black      light      brown           24   male  mascu…
10 Obi-Wan…    182    77 auburn, w… fair       blue-gray       57   male  mascu…
# ℹ 77 more rows
# ℹ 5 more variables: homeworld <chr>, species <chr>, films <list>,
#   vehicles <list>, starships <list>

This data includes a variable called species, and our editor wants a report breaking down the species of our source list based on three broad categories: human, droid, and other. Our editor is hoping we can later cross reference these categories against gender and other variables within the source list.

To accomplish this, it would be helpful to have a “species_category” variable using these three values so we can group and aggregate with other columns.

Let’s take a look at the species column using count().

starwars %>% count(species, sort = TRUE, name = "cnt")

# A tibble: 38 × 2
   species    cnt
   <chr>    <int>
 1 Human       35
 2 Droid        6
 3 <NA>         4
 4 Gungan       3
 5 Kaminoan     2
 6 Mirialan     2
 7 Twi'lek      2
 8 Wookiee      2
 9 Zabrak       2
10 Aleena       1
# ℹ 28 more rows
…
sw_species <- starwars %>% 
  mutate(
    species_category = case_match(
      species,
      "Human" ~ "Human",
      "Droid" ~ "Droid",
      .default = "Other/Unknown",
    )
  )

sw_species %>% 
  count(species, species_category, sort = TRUE)

# A tibble: 38 × 3
   species  species_category     n
   <chr>    <chr>            <int>
 1 Human    Human               35
 2 Droid    Droid                6
 3 <NA>     Other/Unknown        4
 4 Gungan   Other/Unknown        3
 5 Kaminoan Other/Unknown        2
 6 Mirialan Other/Unknown        2
 7 Twi'lek  Other/Unknown        2
 8 Wookiee  Other/Unknown        2
 9 Zabrak   Other/Unknown        2
10 Aleena   Other/Unknown        1
# ℹ 28 more rows
…
Unlike case_match() where you are drawing from values in one specific column, the logic tests used with case_when() can be just about anything as long as they evaluate to TRUE or FALSE.

While this is a silly example, here we create a column called size_compare that notes if a character is “larger” or “smaller” than an average human, unless they are a droid, in which case they are labeled “mechanical”.

starwars %>% 
  mutate(
    size_compare = case_when(
      species == "Droid" ~ "mechanical",
      height >= 170 & mass >= 80 ~ "larger",
      TRUE ~ "smaller"
    )
  ) %>% 
  select(name, size_compare)

# A tibble: 87 × 2
   name               size_compare
   <chr>              <chr>       
 1 Luke Skywalker     smaller     
 2 C-3PO              mechanical  
 3 R2-D2              mechanical  
 4 Darth Vader        larger      
 5 Leia Organa        smaller     
 6 Owen Lars          larger      
 7 Beru Whitesun Lars smaller     
 8 R5-D4              mechanical  
 9 Biggs Darklighter  larger      
10 Obi-Wan Kenobi     smaller     
# ℹ 77 more rows
…
